{
  "MainWindow": {
    "GLOBAL": {
      "height": "843",
      "maximized": "0",
      "style": "1",
      "userScale": "2",
      "width": "1280",
      "xpos": "446",
      "ypos": "122"
    }
  },
  "Window": {
    "###/SmartDashboard/Autonomous Mode Selector": {
      "Collapsed": "0",
      "Pos": "484,30",
      "Size": "254,54"
    },
    "###FMS": {
      "Collapsed": "0",
      "Pos": "5,540",
      "Size": "235,169"
    },
    "###Joysticks": {
      "Collapsed": "0",
      "Pos": "220,449",
      "Size": "796,73"
    },
    "###NetworkTables": {
      "Collapsed": "0",
      "Pos": "267,250",
      "Size": "750,185"
    },
    "###Other Devices": {
      "Collapsed": "0",
      "Pos": "1025,17",
      "Size": "250,695"
    },
    "###System Joysticks": {
      "Collapsed": "0",
      "Pos": "21,288",
      "Size": "192,218"
    },
    "###Timing": {
      "Collapsed": "0",
      "Pos": "220,59",
      "Size": "135,127"
    },
    "Debug##Default": {
      "Collapsed": "0",
      "Pos": "60,60",
      "Size": "400,400"
    },
    "Robot State": {
      "Collapsed": "0",
      "Pos": "5,20",
      "Size": "92,99"
    }
  }
}
